[gd_scene load_steps=4 format=2]

[ext_resource path="res://assets/mask.png" type="Texture" id=1]
[ext_resource path="res://assets/mask_border.png" type="Texture" id=2]

[sub_resource type="Animation" id=1]
resource_name = "win_game"
loop = true
tracks/0/type = "value"
tracks/0/path = NodePath("Light2D/Sprite:visible")
tracks/0/interp = 1
tracks/0/loop_wrap = true
tracks/0/imported = false
tracks/0/enabled = true
tracks/0/keys = {
"times": PoolRealArray( 0, 0.5, 1 ),
"transitions": PoolRealArray( 1, 1, 1 ),
"update": 1,
"values": [ true, false, true ]
}

[node name="GameWon" type="Node2D"]
light_mask = 2

[node name="Light2D" type="Light2D" parent="."]
light_mask = 2
texture = ExtResource( 1 )
mode = 3

[node name="Sprite" type="Sprite" parent="Light2D"]
light_mask = 2
texture = ExtResource( 2 )

[node name="AnimationPlayer" type="AnimationPlayer" parent="."]
autoplay = "win_game"
anims/win_game = SubResource( 1 )
